<?xml version="1.0" encoding="UTF-8"?>
<Project>
   <description></description>
   <name>cimbniaga</name>
   <tag></tag>
   <UUID>0159c5c2-7975-4c6a-b904-afa52819a0f6</UUID>
   <migratedVersion>5.7.0</migratedVersion>
   <pageLoadTimeout>0</pageLoadTimeout>
   <sourceContent>
      <sourceFolderList>
         <sourceFolderConfiguration>
            <url>Include/scripts/groovy</url>
         </sourceFolderConfiguration>
      </sourceFolderList>
      <systemFolderList>
         <systemFolderConfiguration>
            <url>Include/scripts/groovy</url>
         </systemFolderConfiguration>
         <systemFolderConfiguration>
            <url>Include/features</url>
         </systemFolderConfiguration>
      </systemFolderList>
   </sourceContent>
</Project>
